GA Voter Turnout By Race
…
#create all_gender columns for black and white to combine gender-based ones provided in source
votedemos_2020_gen <- votedemos_2020_gen %>% 
  mutate(
    black_ALL_registered = black_male_registered + black_female_registered + black_unknown_registered,
    black_ALL_voted = black_male_voted + black_female_voted + black_unknown_voted,
    black_ALL_pct = round_half_up(black_ALL_voted / black_ALL_registered * 100, 2),
    white_ALL_registered = white_male_registered + white_female_registered + white_unknown_registered,
    white_ALL_voted = white_male_voted + white_female_voted + white_unknown_voted,
    white_ALL_pct = round_half_up(white_ALL_voted / white_ALL_registered * 100, 2)
  )

votedemos_2020_gen

# A tibble: 159 × 76
   elexyear elextype county   county_c…¹ black…² black…³ black…⁴ black…⁵ black…⁶
      <dbl> <chr>    <chr>    <chr>        <dbl>   <dbl>   <dbl>   <dbl>   <dbl>
 1     2020 general  APPLING  001            967     502    51.9    1195     805
 2     2020 general  ATKINSON 002            400     234    58.5     512     358
 3     2020 general  BACON    003            340     132    38.8     559     269
 4     2020 general  BAKER    004            412     237    57.5     517     361
 5     2020 general  BALDWIN  005           4601    2564    55.7    6382    4310
 6     2020 general  BANKS    006            149      64    43.0     121      71
 7     2020 general  BARROW   007           3019    1617    53.6    3634    2506
 8     2020 general  BARTOW   008           3480    1660    47.7    4111    2554
 9     2020 general  BEN HILL 009           1504     674    44.8    2216    1324
10     2020 general  BERRIEN  010            563     242    43.0     684     411
# … with 149 more rows, 67 more variables: black_female_pct <dbl>,
#   black_unknown_registered <dbl>, black_unknown_voted <dbl>,
#   black_unknown_pct <dbl>, white_male_registered <dbl>,
#   white_male_voted <dbl>, white_male_pct <dbl>,
#   white_female_registered <dbl>, white_female_voted <dbl>,
#   white_female_pct <dbl>, white_unknown_registered <dbl>,
#   white_unknown_voted <dbl>, white_unknown_pct <dbl>, …
…
votedemos_2020_gen

# A tibble: 159 × 10
   elexyear elextype county   county_c…¹ black…² black…³ black…⁴ white…⁵ white…⁶
      <dbl> <chr>    <chr>    <chr>        <dbl>   <dbl>   <dbl>   <dbl>   <dbl>
 1     2020 general  APPLING  001           60.4    51.9    67.4    75.7    74.7
 2     2020 general  ATKINSON 002           65.0    58.5    69.9    70.3    69.1
 3     2020 general  BACON    003           44.6    38.8    48.1    73.6    72.6
 4     2020 general  BAKER    004           64.4    57.5    69.8    74.5    76.5
 5     2020 general  BALDWIN  005           62.6    55.7    67.5    74.5    74.1
 6     2020 general  BANKS    006           50      43.0    58.7    70.4    69.3
 7     2020 general  BARROW   007           62.0    53.6    69.0    70.0    68.3
 8     2020 general  BARTOW   008           55.5    47.7    62.1    69.1    68.1
 9     2020 general  BEN HILL 009           53.7    44.8    59.8    67.7    67.0
10     2020 general  BERRIEN  010           52.4    43.0    60.1    66.7    66.2
# … with 149 more rows, 1 more variable: white_female_pct <dbl>, and
#   abbreviated variable names ¹​county_code, ²​black_ALL_pct, ³​black_male_pct,
#   ⁴​black_female_pct, ⁵​white_ALL_pct, ⁶​white_male_pct
…
